{
	"type": "com.westpalmetto.gaming.character.psrd.PSRDCharacter",
    "name": "Sunny",
    "size": {
		"id": "medium"
	},
    "alignment": {
        "law": "CHAOTIC",
        "good": "GOOD"
    },
    "height": "Tall",
    "weight": "102",
    "age": "22",
    "gender": "F",
    "hair": "Black",
    "eyes": "Black",
    "favoredClass": "Sorcerer, ?",
    "hpType": "CALCULATED",
    "experience": 0,
    "advancementTable": "FAST",
    "race": {
		"id": "halfelf",
        "attributeBonus": "CHA",
        "skillFocus": "Bluff"
	},
    "favoredClassBonuses": {
        "hitPoints": 1,
        "skillPoints": 0
    },
    "classes": [
    	{
			"id": "sorcerer",
			"levels": 1,
            "initialClass": true,
            "schools": [ {
                    "id": "Draconic",
                    "className": "sorcerer"
                }
            ],
            "spells": [
                [
                    {
                        "id": "Acid Splash"
                    },
                    {
                        "id": "Daze"
                    },
                    {
                        "id": "Ray of Frost"
                    },
                    {
                        "id": "Disrupt Undead"
                    }
                ],
                [
                    {
                        "id": "Burning Hands"
                    },
                    {
                        "id": "Magic Missile"
                    }
                ]
            ]
		}
    ],
    "attributes": [
        {
            "name": "STR",
            "score": 11
        },
        {
            "name": "DEX",
            "score": 15
        },
        {
            "name": "CON",
            "score": 13
        },
        {
            "name": "INT",
            "score": 15
        },
        {
            "name": "WIS",
            "score": 11
        },
        {
            "name": "CHA",
            "score": 15
        }
    ],
    "skills": [
        {
            "name": "Appraise",
            "ranks": 1
        },
        {
            "name": "Bluff",
            "ranks": 1
        },
        {
            "name": "Intimidate",
            "ranks": 1
        },
        {
            "name": "Spellcraft",
            "ranks": 1
        }
	],
    "languages": [
    	"Common",
    	"Elven",
    	"Draconic",
    	"Aquan"
    ],
    "feats": [{
        "id": "Dodge"
    }],
    "traits": [
        {
            "id": "Elven Reflexes"
        },
        {
            "id": "Desert Child"
        }
    ],
   "equipment": [
    	{
            "id": "Explorer's outfit",
            "location": "Equipped",
            "quantity": 1
        },
        {
            "id": "Backpack",
            "location": "Equipped",
            "quantity": 1
        },
        {
            "id": "Rations, trail",
            "location": "Backpack",
            "quantity": 10
        },
        {
            "id": "Rope, hemp (50 ft.)",
            "location": "Backpack",
            "quantity": 1
        },
        {
            "type": "COINS",
            "location": "Backpack",
            "copper": 0,
            "silver": 0,
            "gold": 62,
            "platinum": 0,
            "gems": 0
        }
    ],
    "notes": []
}
