{
	"deity": {
		"Irori": {
			"name": "Irori",
		    "alignment": {
		        "law": "LAWFUL",
		        "good": "NEUTRAL"
		    },
			"domains": [
				"Healing",
				"Knowledge",
				"Law",
				"Rune",
				"Strength"
			],
			"subdomains": [
				"Inevitable",
				"Language",
				"Memory",
				"Resolve",
				"Restoration",
				"Thought"
			],
			"boons": [
				{
					"name": "Obedience",
					"source": "ISG",
					"description": "Over the course of 1 hour, spend an equal amount of time practicing with a weapon or your unarmed strikes, reading any text that you have never read before, and braiding a length of hair while contemplating the mysteries of the multiverse. Hang the length of hair around your neck when your obedience is complete and wear it for the rest of the day. Gain a +4 sacred or profane bonus on all Knowledge checks. The type of bonus depends on your alignment - if you're neither good nor evil, you must choose either sacred or profane the first time you perform your obedience, and this choice can't be changed.",
					"bonuses": [
					    {
							"type": "SKILL",
							"value": 4,
							"itemKeys": [ "Knowledge" ]
			        	}
					]
				}
			]
		},
		"Torag": {
			"name": "Torag",
		    "alignment": {
		        "law": "LAWFUL",
		        "good": "GOOD"
		    },
			"domains": [
				"Artifice",
				"Earth",
				"Good",
				"Law",
				"Protection"
			],
			"subdomains": [
				"Archon",
				"Caves",
				"Construct",
				"Defense",
				"Judgment",
				"Metal",
				"Toil"
			],
			"boons": [
				{
					"name": "Obedience",
					"source": "ISG",
					"description": "After reciting a traditional prayer to Torag, either work at a forge or strike a small replica of an anvil or a sizable flat stone with a hammer for at least 10 minutes. If the sound of your hammer draws a creature near, encourage it to join in your worship of the Father of Creation. If hostilities become inevitable, leap into the fray with a battle shout in praise of Torag. Perform some small act toward maintaining your weapon, such as sharpening or polishing it, as you conclude your obedience with another prayer to Torag's might and wisdom. Alternatively, if you have created something through this effort, grant it to the next person you meet who strikes you as fair and honorable. Gain a +1 sacred bonus on all attack rolls made with warhammers.",
					"bonuses": [
					    {
							"type": "ATTACK",
							"value": 1,
							"itemKeys": [ "Warhammer" ]
			        	}
					]
				}
			]
		}
	},
	"feat": {
		"Deific Obedience": {
			"source": "ISG",
			"name": "Deific Obedience",
			"description": "Each deity requires a different daily obedience, but all obediences take no more than 1 hour per day to perform. Once you've performed the obedience, you gain the benefit of a special ability or resistance as indicated in the \"Obedience\" entry for the god to whom you performed the obedience.  If you have at least 12 Hit Dice, you also gain the first boon granted by your deity upon undertaking your obedience. If you have at least 16 Hit Dice, you also gain the deity's second boon. If you have 20 Hit Dice or more, you also gain the deity's third boon. Unless a specific duration or number of uses per day is listed, a boon's effects are constant."
		}
	}
}
