{
	"boon": {
		"Coin of Jalmeray": {
			"name": "1-33: Coin of Jalmeray",
			"description": "Venture-Captain Mihir presents you with a copper coin that has the sigil of the open road on one side and the flag od Jalmeray on the other.  When in Absalom or any major city (more than 5,000 residents) in Andoran, Cheliax, Jalmeray, Osirion, Qadira, or Taldor, you can present this coin to any citizen of Jalmeray (it takes 1d4 hours to locate one) and receive a +4 circumstance bonus on any one Appraise, Diplomacy, or Knowledge (any) skill check.  You may only use this coin once per scenario.",
			"bonuses": [
				{
					"type": "SKILL",
					"condition": "+1 circumstance bonus to any Intelligence or Charisma-based checks made while in Absalom."
				}
			]
		},
		"You Rescued the Minotaur Prince": {
			"name": "1-45: You Rescued the Minotaur Prince",
			"description": "You rescued Naur Spiritskin, the Minotaur Prince of Absalom, and he is quite grateful.  He spreads the tale of your daring-do to his many contacts throughout the city.  You gain a permanent +1 circumstance bonus to any Intelligence or Charisma-based checks made while in Absalom.",
			"bonuses": [
				{
					"type": "SKILL",
					"condition": "+1 circumstance bonus to any Intelligence or Charisma-based checks made while in Absalom."
				}
			]
		},
		"Snowmask Induction": {
			"name": "2-19: Snowmask Induction",
			"description": "You allied with the Snowmask Clan and returned Jedrek's Shard to its place of honor beside Ranulf's body.  In thanks, you are ritually inducted into the Snowmask Clan with the title Snowmask Brother or Snowmask Sister.  As part of this mystic ceremony, you gain the permanent benefits of endure elements, but only in cold and only to temperatures of 0F and above.  You gain no bonuses to extreme heat.  This is a supernatural ability.",
			"bonuses": [
				{
					"type": "SAVING_THROW",
					"condition": "Ignore the effects of cold at temperatures 0F and above."
				}
			]
		},
		"Mutani Manual of Martial Mastery": {
			"name": "3-03: Mutani Manual of Martial Mastery",
			"description": "You retrieved the Mutani Manual of Martial Mastery and had the chance to look through it briefly as it was being translated in Farseer Tower.  Choose one combat maneuver; you gain a +1 insight bonus to CMD against this maneuver.",
			"bonuses": [
				{
					"type": "COMBAT_DEFENSE",
					"requireItemKey": true,
					"condition": "+1 insight bonus to CMD against the selected combat maneuver."
				}
			]
		},
		"Relentless Aspis Hunter": {
			"name": "3-14: Relentless Aspis Hunter",
			"description": "Your dedication to stopping the Aspis Consortium from exploiting the Hao Jin Tapestry for its own profit manifests as a +2 morale bonus on attack and damage rolls against Aspis agents inside the Hao Jin Tapestry.",
			"bonuses": [
				{
					"type": "ATTACK",
					"condition": "+2 morale bonus on attack and damage rolls against Aspis agents inside the Hao Jin Tapestry."
				}
			]
		},
		"Magnimarian Debt": {
			"name": "4-00: Magnimarian Debt",
			"description": "The many wealthy and influental attendees of the auction for the Runecarved Key owe you a debt of gratitude for dealing with the assault on the Temple of Abadar.  In thanks for saving their lives from the rampaging cultists, the citizens of Magniar can be called on in the future to assist you when your life needs saving or restoring.  When you would pay for the casting of raise dead, resurrection, or true resurrection, you may call upon this favor and reduce the price of the spellcasting services by half.  This applies if paid by coin or prestige points.  Once you have used this boon, cross it off the Chronicle sheet."
		},
		"Formidable Renoun": {
			"name": "4-00: Formidable Renoun",
			"description": "Word of your defeat of the cultists of Lissala and your tenacity in the face of the relentless onslaught of summoned outsiders has quickly spread through the ranks of the secretive cult.  When facing a worshipper of Lissala, you gain a +2 bonus on Intimidate checks to demoralize them, and you can make one such attempt per encounter as a move action instead of a standard action.",
			"bonuses": [
				{
					"type": "SKILL",
					"itemKeys": [ "Intimidate" ],
					"condition": "+2 bonus to demoralize worshippers of Lissala."
				}
			]
		},
		"Mendevian Commendation": {
			"name": "5-22: Mendevian Commendation",
			"description": "You have received a medal for your service to Mendev and the Fifth Crusade.  For every Mendevian Commendation you have, you receive a cumulative +1 bonus on Charisma-based skill and ability checks made to influence crusaders of Mendev (maximum +3).",
			"bonuses": [
				{
					"type": "SKILL",
					"condition": "+1 Charisma bonus to influence crusaders of Mendev."
				}
			]
		},
		"Siege-Hardened": {
			"name": "5-00: Siege-Hardened",
			"description": "You survived the Siege of Nerosyan, and you have learned some impressive tricks for fighting demons.  You gain a +1 bonus on weapon damage rolls against creatures with the demon subtype.  Before rolling a caster level check to overcome a demon's spell resistance, you may cross this boon off your Chronicle sheet to gain a +3 bonus on the roll.",
			"bonuses": [
				{
					"type": "ATTACK",
					"condition": "+1 bonus on weapon damage rolls against creatures with the demon subtype."
				}
			]
		},
		"Defender of Nerosyan (Impressive Defense)": {
			"name": "5-00: Defender of Nerosyan (Impressive Defense)",
			"description": "The city of Nerosyan stands in part because of your actions, and Queen Galfrey herself has taken note.  While in Mendev or the Worldwound, reduce the cost of purchasing a Prestige Award while outside of a settlement of 5,000 residents or more by 3.  You gain a 5% discount on any magical items that require a spell with the Good descriptor as a spell prerequisite.  This does not stack with other discounts.",
			"bonuses": [
				{
					"type": "ARMOR_CLASS",
					"condition": "+1 insight bonus to AC when flat-footed or during a surprise round."
				},
				{
					"type": "SAVING_THROW",
					"condition": "+1 insight bonus to saving throws when flat-footed or during a surprise round."
				}
			]
		},
		"New Recruits": {
			"name": "5-99: New Recruits",
			"description": "Your faction's success enables it to recruit and train new members.  You were designated by another PC under your Pathfinder Society number who shares your faction as a new recruit.  This additional training grants you one of the faction's traits as a bonus trait, though you still cannot have more than one faction trait.  You must include a copy of this chrnicle sheet with both characters; the new PC gains no additional boons, equipment, or wealth from this chronicle sheet.",
			"bonuses": [
				{
						"type": "TRAIT_COUNT",
						"value": 1
				},
				{
						"type": "TRAIT",
						"requireItemKey": true
				}
			]
		},
		"Sight of the Unseeing": {
			"name": "6-00: Sight of the Unseeing",
			"description": "Your exposure to Jormurdun's prophecies and ancient cults has given you exceptional insights into future events.  You gain a +1 insight bonus to AC and saving throws when flat-footed or during a surprise round.  You may cross this boon off your Chronicle sheet before rolling an attack roll, initiative check, ability check, skill checks, or saving throw to add 1d6 to the result.  Alternatively, you may cross this boon off your Chronichel sheet before rolling d% as part of a divination spell to add or subtract 1d6 from the result.",
			"bonuses": [
				{
					"type": "ARMOR_CLASS",
					"condition": "+1 insight bonus to AC when flat-footed or during a surprise round."
				},
				{
					"type": "SAVING_THROW",
					"condition": "+1 insight bonus to saving throws when flat-footed or during a surprise round."
				}
			]
		},
		"Daring Rescue": {
			"name": "6-11: Daring Rescue",
			"description": "(Liberty's Edge) Your strengthened connections to the Bellflower Network and continued dedication to the rescue of innocents has earned you the respect of your freedom-fighting colleagues.  You may cross this boon off your Chronicle sheet when using Prestige Points to recover your body and gear to reduce the Prestige Point cost by 3 (minimum 0)."
		},
		"Gnoll Tactics": {
			"name": "6-11: Gnoll Tactics",
			"description": "Your firsthand experience with gnoll tactics and cultural traditions gives you a headstart into incorporating their unique styles into your own training.  So long as you possess this boon, all of your Pathfider Society Organized Play characters have access to the following feats and archetypes from the Pathfinder RPG Monster Codex as if they appeared on the Additional Resources page: Coordinated Reposition, Disarm partner, Improved Disarm Partner, Snapping Flank, the pack rager barbarian archetype, and the flindbar."
		},
		"Warm Friend in a Cold Land": {
			"name": "6-18: Warm Friend in a Cold Land",
			"description": "You have befriended Uliyara, a stilyagi Jadwiga, and she proves to be a valuable ally in Irissen.  Whenever you are in Irissen, you can apply a +2 circumstance bonus on all Diplomacy checks.  You may additionally bring Uliyara along with you on one mission to any location, allowing her to grant you the effects of this boon outside Irissen.  When you use this boon outside Irissen, cross it off your character sheet.",
			"bonuses": [
				{
					"type": "SKILL",
					"condition": "+2 to Diplomacy checks while within Irissen.",
					"itemKeys": ["Diplomacy"]
				}
			]
		},
		"Pathfinder's Excellence (Combat)": {
			"name": "6-97: Pathfinder's Excellence (Combat)",
			"description": "Before making an attack, you may check off one of the boxes preceeding this boon in order to roll the attack twice and take the better result.  If the attack is against a member of the Aspis Consortium or someone in the Consortium's direct employ, the critical threat range of the attack doubles; this benefit does not stack with any oither benefit that extends the threat range of a weapon, such as the Improved Critical feat.  Once you check the second box, cross this boon off your chronicle sheet."
		},
		"Pathfinder's Excellence (Magic)": {
			"name": "6-97: Pathfinder's Excellence (Magic)",
			"description": "Before casting a spell or using a spell-like ability, you may check off one of the boxes preceeding this boon in order to roll twice for any caster level check to overcome spell resistance and on caster level check or concentration checks made to cast a spell in an impeded area, such as a fire spell underwater or on a plane with the impeded magic trait.  Any members of the Aspis Consortium or foes in the Consortium's direct employ suffer a -2 penalty on any saving throw against the spell.  As a standard action, you may instead check two boxes to recall a spell that you have already cast that day.  This spell is prepared again, just as if it had not been cast.  Once you check the second box, cross this boon off your chronicle sheet."
		},
		"Impressive Find": {
			"name": "6-I1: Impressive Find",
			"description": "A representative from the Pathfinder Society has heard of your discoveries int he River Kingdoms and invites you to join the Society as a field agent.  Once you earn 12 or more Fame, your superiors award you one additional Prestige Point (but not Fame) in recognition of your excellence.  You cannot have more Prestige Points than Fame, and if you would exceed this maximum, the bonus Prestige Point must be spent immediately or lost."
		},
		"Elixr of Treasure Seeking": {
			"name": "6-I1: Elixr of Treasure Seeking",
			"description": "One of the special treasure that you found while seeking fame and fortune was a flask of liquid that glowed softly with golden light.  Drinking this elixr gives you the ability to find treasure in unlikely places, granting you a +2 competence bonus on Appraise and Perception checks for the duration of an entire adventure.  In addition, if you earn less than the maximum gold piece award during an adventure, your sharpened senses lead you to a small cache of gold and gems that increases your gold earned by 150gp, up to the maximum reward given in the adventure.  When you use this boon, cross it off your chronicle sheet."
		},
		"Impressive Find": {
			"name": "6-I1: Impressive Find",
			"description": "A representative from the Pathfinder Society has heard of your discoveries int he River Kingdoms and invites you to join the Society as a field agent.  Once you earn 12 or more Fame, your superiors award you one additional Prestige Point (but not Fame) in recognition of your excellence.  You cannot have more Prestige Points than Fame, and if you would exceed this maximum, the bonus Prestige Point must be spent immediately or lost."
		},
		"Azlanti Wonders": {
			"name": "7-00: Azlanti Wonders",
			"description": "While interviewing the Azlanti general Krahnaliara Lac Suhn, you learned the location ofg an Azlanti site that might have survived millenia of tragedy and looting.  When you adventure in a ruin, archaeological site, or other structure that predates Earthfall (approximately 10,000 years ago, including more Azlanti and Thassilonian sites), you can cross this boon off your Chronicle sheet and choose two of the following: AC, attack rolls, saving throws, or skill checks.  For the duration of the adventure while you are exploring the site, you gain a +1 insight bonus on the selected rolls or to your Armor Class."
		},
		"Councilor of Time": {
			"name": "7-00: Councilor of Time",
			"description": "The kindness and compassion of the Pathfinders granted Lady Arodeth a moment's peace before she sacrificed herself to save them, and this compassion attracted members of the Harbingers of Fate with intellect and care for other to join the Society.  You were one of these recruits and a s result gain one of the following as a bonus trait: Caretaker, Charming, or Ease of Faith.",
			"bonuses": [
				{
						"type": "TRAIT_COUNT",
						"value": 1
				},
				{
						"type": "TRAIT",
						"requireItemKey": true
				}
			]
		},
		"Timelost Chronicler": {
			"name": "7-00: Timelost Chronicler",
			"description": "You have journeyed through the ancient serpentfolk city of Sessegishoss and witnessed the fall of the Starstone, granting you remarkable perspective of Golarion's history.  You gain a permanent +1 bonus on Knowledge (history) checks from your first-hand knowledge.  Once per scenario, you may call upon the nascent power gratned by your exposure to the falling Starstone to find inner greatness, granting you a +1 morale bonus to a single d20 roll.  You must declare your use of this power before the roll is made.",
			"bonuses": [
				{
					"type": "SKILL",
					"value": 1,
					"itemKeys": ["Knowledge (history)"]
				}
			]
		}
	},
	"equipment":{
	    "Koboldfriend Necklace": {
			"name": "Koboldfriend Necklace (3-02)",
			"weight": 0,
			"slot": "NECK",
			"notes": "PFS 3-02 (#18)",
			"bonuses": [
				{
					"type": "SKILL",
					"itemKeys": [ "Diplomacy" ],
					"condition": "+2 to Diplomacy checks with humanoids of the reptilian subtype."
				}
			]
		},
		"Nexus Crystal": {
			"name": "Nexus Crystal (Bonekeep 1)",
			"weight": .5,
			"slot": "SLOTLESS",
			"notes": "Bonekeep 1 (#16)",
			"abilities": [
				{
					"name": "Energy Resistance",
					"itemKeys": [ "Negative Energy" ]
				}
			] 
	    }
	},
	"trait": {
		"Beneficent Touch": {
			"name": "Beneficent Touch (Silver Crusade)",
			"description": "Once per day, when you cast a spell or use a class ability that heals hit point damage, reroll any 1s that appear on the dice and take the new roll (even if it is another 1)."
		},
		"Tomb Raider": {
			"name": "Tomb Raider (Scarab Sages)",
			"description": "You've spent most of your life exploring the ancient tombs and catacombs of Osirion. You gain a +1 bonus on Perception and Knowledge (dungeoneering) checks, and one of these skills (your choice) becomes a class skill for you.",
			"bonuses": [
				{
					"type": "SKILL",
					"itemKeys": [ "Perception" ],
					"value": 1
				},
				{
					"type": "SKILL",
					"itemKeys": [ "Knowledge (dungeoneering)" ],
					"value": 1
				}
			]
		},
		"Unorthodox Strategy": {
			"name": "Unorthodox Strategy (Silver Crusade)",
			"description": "You are particularly quick on your feet, and gain a +2 trait bonus on Acrobatics checks made to move through an enemy's threatened squares.",
			"bonuses": [
				{
					"type": "SKILL",
					"condition": "+2 trait bonus on Acrobatics checks made to move through threatened squares."
				}
			]
		}
	}
}