 {
	"type": "com.westpalmetto.gaming.character.psrd.PFSCharacter",
    "name": "Isaac Cherrywine",
    "size": {
		"id": "small"
	},
    "alignment": {
        "law": "CHAOTIC",
        "good": "GOOD"
    },
    "height": "3&apos;",
    "weight": "60 Lbs.",
    "age": "22",
    "gender": "M",
    "hair": "Brown",
    "eyes": "Green",
    "deity": "Caiden Calien",
    "favoredClass": "rogue-unchained",
    "faction": "Silver Crusade",
    "prestige": 7,
    "fame": 38,
    "hpType": "CALCULATED",
    "experience": 18.5,
    "race": {
		"id": "halfling"
	},
    "favoredClassBonuses": {
    	"hitPoints": 7,
    	"skillPoints": 0
    },
    "classes": [
	    {
			"id": "rogue-unchained",
			"levels": 7,
			"initialClass": true,
			"options": {
				"Finesse Training 1": "Rapier",
				"Rogue's Edge 1": "Perception"
			},
			"talents": [
				{
					"id": "Minor Magic",
					"className": "rogue-unchained",
					"itemKeys": [ "Detect Magic" ]
				},
				{
					"id": "Trap Spotter",
					"className": "rogue-unchained"
				},
				{
					"id": "Rogue Crawl",
					"className": "rogue-unchained"
				}
			]
		}
    ],
    "attributes": [
        {
            "name": "STR",
            "score": 10
        },
        {
            "name": "DEX",
            "score": 14
        },
        {
            "name": "CON",
            "score": 10
        },
        {
            "name": "INT",
            "score": 10
        },
        {
            "name": "WIS",
            "score": 16
        },
        {
            "name": "CHA",
            "score": 14
        }
    ],
    "attributeIncreases": [
        {
            "name": "DEX",
            "score": 1
        }
    ],
    "skills": [
	    {
	        "name": "Acrobatics",
	        "ranks": 4,
	        "attributeName": "DEX",
	        "classSkill": true,
	        "trainedOnly": false
	    },
	    {
	        "name": "Appraise",
	        "ranks": 1,
	        "attributeName": "INT",
	        "classSkill": true,
	        "trainedOnly": false
	    },
	    {
	        "name": "Bluff",
	        "ranks": 5,
	        "attributeName": "CHA",
	        "classSkill": true,
	        "trainedOnly": false
	    },
	    {
	        "name": "Climb",
	        "ranks": 1,
	        "attributeName": "STR",
	        "classSkill": true,
	        "trainedOnly": false
	    },
	    {
	        "name": "Craft",
	        "ranks": 0,
	        "attributeName": "INT",
	        "classSkill": true,
	        "trainedOnly": false
	    },
	    {
	        "name": "Diplomacy",
	        "ranks": 7,
	        "attributeName": "CHA",
	        "classSkill": true,
	        "trainedOnly": false
	    },
	    {
	        "name": "Disable Device",
	        "ranks": 6,
	        "attributeName": "DEX",
	        "classSkill": true,
	        "trainedOnly": true
	    },
	    {
	        "name": "Disguise",
	        "ranks": 0,
	        "attributeName": "CHA",
	        "classSkill": true,
	        "trainedOnly": false
	    },
	    {
	        "name": "Escape Artist",
	        "ranks": 1,
	        "attributeName": "DEX",
	        "classSkill": true,
	        "trainedOnly": false
	    },
	    {
	        "name": "Fly",
	        "ranks": 0,
	        "attributeName": "DEX",
	        "classSkill": false,
	        "trainedOnly": false
	    },
	    {
	        "name": "Handle Animal",
	        "ranks": 0,
	        "attributeName": "CHA",
	        "classSkill": false,
	        "trainedOnly": true
	    },
	    {
	        "name": "Heal",
	        "ranks": 0,
	        "attributeName": "WIS",
	        "classSkill": false,
	        "trainedOnly": false
	    },
	    {
	        "name": "Intimidate",
	        "ranks": 1,
	        "attributeName": "CHA",
	        "classSkill": true,
	        "trainedOnly": false
	    },
	    {
	        "name": "Knowledge (arcana)",
	        "ranks": 0,
	        "attributeName": "INT",
	        "classSkill": false,
	        "trainedOnly": true
	    },
	    {
	        "name": "Knowledge (dungeoneering)",
	        "ranks": 1,
	        "attributeName": "INT",
	        "classSkill": true,
	        "trainedOnly": true
	    },
	    {
	        "name": "Knowledge (engineering)",
	        "ranks": 0,
	        "attributeName": "INT",
	        "classSkill": false,
	        "trainedOnly": true
	    },
	    {
	        "name": "Knowledge (geography)",
	        "ranks": 0,
	        "attributeName": "INT",
	        "classSkill": false,
	        "trainedOnly": true
	    },
	    {
	        "name": "Knowledge (history)",
	        "ranks": 0,
	        "attributeName": "INT",
	        "classSkill": false,
	        "trainedOnly": true
	    },
	    {
	        "name": "Knowledge (local)",
	        "ranks": 1,
	        "attributeName": "INT",
	        "classSkill": true,
	        "trainedOnly": true
	    },
	    {
	        "name": "Knowledge (nature)",
	        "ranks": 0,
	        "attributeName": "INT",
	        "classSkill": false,
	        "trainedOnly": true
	    },
	    {
	        "name": "Knowledge (nobility)",
	        "ranks": 0,
	        "attributeName": "INT",
	        "classSkill": false,
	        "trainedOnly": true
	    },
	    {
	        "name": "Knowledge (planes)",
	        "ranks": 0,
	        "attributeName": "INT",
	        "classSkill": false,
	        "trainedOnly": true
	    },
	    {
	        "name": "Knowledge (religion)",
	        "ranks": 0,
	        "attributeName": "INT",
	        "classSkill": false,
	        "trainedOnly": true
	    },
	    {
	        "name": "Linguistics",
	        "ranks": 0,
	        "attributeName": "INT",
	        "classSkill": true,
	        "trainedOnly": true
	    },
	    {
	        "name": "Perception",
	        "ranks": 7,
	        "attributeName": "WIS",
	        "classSkill": true,
	        "trainedOnly": false
	    },
	    {
	        "name": "Perform",
	        "ranks": 0,
	        "attributeName": "CHA",
	        "classSkill": true,
	        "trainedOnly": false
	    },
	    {
	        "name": "Profession: Gambler",
	        "ranks": 4,
	        "attributeName": "WIS",
	        "classSkill": true,
	        "trainedOnly": true
	    },
	    {
	        "name": "Profession",
	        "ranks": 0,
	        "attributeName": "WIS",
	        "classSkill": true,
	        "trainedOnly": true
	    },
	    {
	        "name": "Ride",
	        "ranks": 0,
	        "attributeName": "DEX",
	        "classSkill": false,
	        "trainedOnly": false
	    },
	    {
	        "name": "Sense Motive",
	        "ranks": 2,
	        "attributeName": "WIS",
	        "classSkill": true,
	        "trainedOnly": false
	    },
	    {
	        "name": "Sleight of Hand",
	        "ranks": 1,
	        "attributeName": "DEX",
	        "classSkill": true,
	        "trainedOnly": true
	    },
	    {
	        "name": "Spellcraft",
	        "ranks": 0,
	        "attributeName": "INT",
	        "classSkill": false,
	        "trainedOnly": true
	    },
	    {
	        "name": "Stealth",
	        "ranks": 7,
	        "attributeName": "DEX",
	        "classSkill": true,
	        "trainedOnly": false
	    },
	    {
	        "name": "Survival",
	        "ranks": 0,
	        "attributeName": "WIS",
	        "classSkill": false,
	        "trainedOnly": false
	    },
	    {
	        "name": "Swim",
	        "ranks": 0,
	        "attributeName": "STR",
	        "classSkill": true,
	        "trainedOnly": false
	    },
	    {
	        "name": "Use Magic Device",
	        "ranks": 7,
	        "attributeName": "CHA",
	        "classSkill": true,
	        "trainedOnly": true
	    }
	],
    "languages": [
    	"Common",
    	"Halfling",
    	"Elven"
    ],
    "feats": [
        {
            "id": "Cautious Fighter"
        },
        {
            "id": "Uncanny Defense"
        },
        {
            "id": "Dodge"
        },
        {
            "id": "Skill Focus",
            "itemKeys": [ "Perception" ]
        }
    ],
    "traits": [
        {
            "id": "Reactionary"
        },
        {
            "id": "Unorthodox Strategy"
        }
    ],
    "boons": [
        {
        	"id": "Magnimarian Debt"
        },
        {
        	"id": "Formidable Renoun"
        },
        {
        	"id": "You Rescued the Minotaur Prince"
        },
        {
        	"id": "Snowmask Induction"
        },
        {
            "id": "Mutani Manual of Martial Mastery",
            "itemKeys": [ "Disarm" ]
        },
        {
            "id": "Relentless Aspis Hunter"
        }
    ],
    "equipment": [
    	{
    		"id": "Rapier",
    		"name": "Cold Iron Rapier",
    		"type": "WEAPON",
    		"quantity": 1,
    		"size": "S",
    		"quality": "PLUS1",
    		"location": "Equipped"
	   	},
    	{
    		"id": "Dagger",
    		"type": "WEAPON",
    		"quantity": 5,
    		"size": "S",
    		"location": "Equipped",
    		"notes": "Hidden"
	   	},
    	{
    		"id": "Mace, light",
    		"type": "WEAPON",
    		"quantity": 1,
    		"size": "S",
    		"location": "Equipped"
	   	},
    	{
    		"id": "Studded leather",
    		"type": "ARMOR",
    		"quantity": 1,
    		"quality": "PLUS2",
    		"location": "Equipped",
    		"size": "S"
    	},
    	{
    		"id": "Explorer's outfit",
    		"quantity": 1,
    		"location": "Equipped",
    		"size": "S"
    	},
    	{
    		"id": "Thieves' tools, masterwork",
    		"quantity": 1,
    		"location": "Equipped"
    	},
    	{
    		"id": "Scroll",
    		"itemKeys": ["Cure Light Wounds"],
    		"location": "Equipped",
    		"quantity": 3
    	},
    	{
    		"id": "Potion",
    		"itemKeys": ["Cure Light Wounds"],
    		"location": "Equipped",
    		"quantity": 3
    	},
    	{
    		"id": "Necklace of Fireballs, type I",
    		"location": "Equipped",
    		"quantity": 1 
    	},
    	{
    		"id": "Wand",
    		"itemKeys": ["Burning Hands"],
    		"location": "Equipped",
    		"quantity": 1,
	        "charges": [
	        	{
	        		"quantity": 16
	    		}
	        ]
    	},
    	{
    		"id": "Wand",
    		"itemKeys": ["Cure Light Wounds"],
    		"location": "Equipped",
    		"quantity": 1,
	        "charges": [
	        	{
	        		"quantity": 18
	    		}
	        ]
    	},
    	{
    		"id": "Wand",
    		"itemKeys": ["Cure Moderate Wounds"],
    		"location": "Equipped",
    		"quantity": 1,
	        "charges": [
	        	{
	        		"quantity": 6
	    		}
	        ]
    	},
    	{
    		"id": "Pony",
    		"quantity": 1
    	},
    	{
    		"id": "Saddle, riding",
    		"location": "Pony",
    		"size": "S",
    		"quantity": 1
    	},
    	{
    		"id": "Saddlebags",
    		"location": "Pony",
    		"size": "S",
    		"quantity": 1
    	},
    	{
    		"id": "Bedroll",
    		"location": "Pony",
    		"size": "S",
    		"quantity": 1
    	},
    	{
    		"id": "Flint and steel",
    		"location": "Saddlebags",
    		"quantity": 1
    	},
    	{
    		"id": "Everburning torch",
    		"location": "Saddlebags",
    		"quantity": 1
    	},
    	{
    		"id": "Cold-weather outfit",
    		"location": "Saddlebags",
    		"size": "S",
    		"quantity": 1
    	},
    	{
    		"id": "Hot-weather outfit",
    		"size": "S",
    		"location": "Saddlebags",
    		"quantity": 1
    	},
    	{
    		"id": "Koboldfriend Necklace",
    		"location": "Equipped",
    		"quantity": 1
    	},
    	{
    		"id": "Nexus Crystal",
    		"location": "Equipped",
    		"quantity": 1
    	},
    	{
    		"id": "Antiplague (vial)",
    		"weight": 0,
    		"location": "Saddlebags",
    		"quantity": 4
    	},
    	{
    		"id": "Antitoxin (vial)",
    		"location": "Saddlebags",
    		"quantity": 3
    	},
    	{
    		"id": "Cloak of Resistance +1",
    		"location": "Equipped",
    		"quantity": 1
    	},
	    {
	    	"type": "COINS",
	    	"location": "Saddlebags",
	    	"copper": 0,
	    	"silver": 0,
	    	"gold": 6287,
	    	"platinum": 0,
	    	"gems": 0
	    }
	],
	"notes": [
	]
}
