{
    "type": "com.westpalmetto.gaming.character.sfsrd.SFCharacter",
    "name": "Midnight (Kathryn)",
    "size": {
        "id": "medium"
    },
    "alignment": {
        "law": "LAWFUL",
        "good": "GOOD"
    },
    "height": "5'10\"",
    "weight": "140 Lbs.",
    "age": "25",
    "gender": "F",
    "hair": "Blue",
    "eyes": "Purple",
    "deity": "Iomedae",
    "experience": 0,
    "race": {
        "id": "human",
		"attributeBonus": "WIS",
        "ruleset": "SFSRD"
    },
    "theme": {
        "id": "Xenoseeker",
        "ruleset": "SFSRD"
    },
    "classes": [{
        "id": "mystic",
        "levels": 1,
        "schools": [{
            "id": "Healer",
            "className": "mystic",
            "ruleset": "SFSRD"
        }],
        "spells": [
            [{
                    "id": "daze",
                    "ruleset": "SFSRD"
                },
                {
                    "id": "detectMagic",
                    "ruleset": "SFSRD"
                },
                {
                    "id": "telekeneticProjectile",
                    "ruleset": "SFSRD"
                },
                {
                    "id": "stabilize",
                    "ruleset": "SFSRD"
                }
            ],
            [{
                    "id": "mindThrust1",
                    "ruleset": "SFSRD"
                },
                {
                    "id": "shareLanguage",
                    "ruleset": "SFSRD"
                }
            ]
        ],
        "ruleset": "SFSRD"
    }],
    "attributes": [{
            "name": "STR",
            "score": 10
        },
        {
            "name": "DEX",
            "score": 10
        },
        {
            "name": "CON",
            "score": 10
        },
        {
            "name": "INT",
            "score": 10
        },
        {
            "name": "WIS",
            "score": 15
        },
        {
            "name": "CHA",
            "score": 15
        }
    ],
    "skills": [{
            "name": "Acrobatics",
            "ranks": 0,
            "attributeName": "DEX",
            "classSkill": false,
            "trainedOnly": false
        },
        {
            "name": "Athletics",
            "ranks": 0,
            "attributeName": "STR",
            "classSkill": false,
            "trainedOnly": false
        },
        {
            "name": "Bluff",
            "ranks": 1,
            "attributeName": "CHA",
            "classSkill": true,
            "trainedOnly": false
        },
        {
            "name": "Computers",
            "ranks": 0,
            "attributeName": "INT",
            "classSkill": false,
            "trainedOnly": true
        },
        {
            "name": "Culture",
            "ranks": 1,
            "attributeName": "INT",
            "classSkill": true,
            "trainedOnly": true
        },
        {
            "name": "Diplomacy",
            "ranks": 1,
            "attributeName": "CHA",
            "classSkill": true,
            "trainedOnly": false
        },
        {
            "name": "Disguise",
            "ranks": 0,
            "attributeName": "CHA",
            "classSkill": true,
            "trainedOnly": false
        },
        {
            "name": "Engineering",
            "ranks": 0,
            "attributeName": "INT",
            "classSkill": false,
            "trainedOnly": true
        },
        {
            "name": "Intimidate",
            "ranks": 0,
            "attributeName": "CHA",
            "classSkill": true,
            "trainedOnly": false
        },
        {
            "name": "Life Science",
            "ranks": 1,
            "attributeName": "INT",
            "classSkill": true,
            "trainedOnly": true
        },
        {
            "name": "Medicine",
            "ranks": 1,
            "attributeName": "INT",
            "classSkill": true,
            "trainedOnly": true
        },
        {
            "name": "Mysticism",
            "ranks": 1,
            "attributeName": "WIS",
            "classSkill": true,
            "trainedOnly": true
        },
        {
            "name": "Perception",
            "ranks": 1,
            "attributeName": "WIS",
            "classSkill": true,
            "trainedOnly": false
        },
        {
            "name": "Physical Science",
            "ranks": 0,
            "attributeName": "INT",
            "classSkill": false,
            "trainedOnly": true
        },
        {
            "name": "Piloting",
            "ranks": 0,
            "attributeName": "DEX",
            "classSkill": false,
            "trainedOnly": false
        },
        {
            "name": "Profession",
            "ranks": 0,
            "attributeName": "WIS",
            "classSkill": true,
            "trainedOnly": true
        },
        {
            "name": "Sense Motive",
            "ranks": 0,
            "attributeName": "WIS",
            "classSkill": true,
            "trainedOnly": false
        },
        {
            "name": "Stealth",
            "ranks": 0,
            "attributeName": "DEX",
            "classSkill": false,
            "trainedOnly": false
        },
        {
            "name": "Survival",
            "ranks": 0,
            "attributeName": "WIS",
            "classSkill": true,
            "trainedOnly": false
        }
    ],
    "languages": [
        "Common",
        "Lashunta"
    ],
    "feats": [{
        "id": "Diversion",
        "ruleset": "SFSRD"
    },{
        "id": "Lightning Reflexes",
        "ruleset": "SFSRD"
    }],
    "boons": [],
    "equipment": [{
            "id": "Second skin",
            "type": "SFARMOR",
            "quantity": 1,
            "quality": "NORMAL",
            "location": "Equipped",
            "ruleset": "SFSRD"
        },
        {
            "id": "Knife, survival",
            "type": "WEAPON",
            "quantity": 1,
            "quality": "NORMAL",
            "location": "Equipped",
            "ruleset": "SFSRD"
        },{
            "id": "Laser pistol, azimuth",
            "type": "WEAPON",
            "quantity": 1,
            "quality": "NORMAL",
            "location": "Equipped",
            "ruleset": "SFSRD"
        }],
    "credits": 305,
    "notes": []
}
