{
	"theme": {
		"Guard": {
			"name": "Guard",
			"themeSkill": "Perception",
			"abilities": [{
				"name": "Theme Knowledge",
				"source": "COM",
				"description": "You are well versed in security systems, how to spot them, and how to use them to keep people and places safe. Reduce the DC for Engineering checks to identify technology and Mysticism checks to identify a magic items by 5, provided the item is a security system, surveillance equipment, or trap. In addition, Perception becomes a class skill for you, though if it is a class skill from the class you take at 1st level, you instead gain a +1 bonus to Perception checks. In addition, you gain an ability adjustment of either +1 to Strength or +1 to Dexterity (your choice) at character creation.",
				"bonuses": [{
					"type": "SKILL",
					"condition": "Reduce the DC for Engineering checks to identify technology and Mysticism checks to identify a magic items by 5, provided the item is a security system, surveillance equipment, or trap."
				}]
			},{
				"name": "Guarded Ward",
				"description": "At 6th level, you focus on protecting a particular person or place, which becomes known as your ward. You must study a specific creature or a specific location (such as a building or starship) for 1 day to make it your ward. If your ward is a creature, you automatically succeed at checks to aid another with your ward when you are adjacent to them. If your ward is a location, you succeed at checks to aid another with anyone adjacent to you when you are both within your ward. You can change your ward by selecting a new one and studying it for 1 day.",
				"applies": 6,
				"appliesType": "CHARACTER_LEVEL"
			},{
				"name": "Able Guardian",
				"description": "At 12th level, those who have come to rely on you know you are vigilant and ready to help at a moment’s notice. You know when something just doesn’t feel right, and you’ve saved the life of more than one client. You can perform the first aid task of the Medicine skill as a move action rather than as a standard action, and you can perform the sense mental effect task of Sense Motive as a full action instead of taking 1 minute. In addition, you gain a +4 insight bonus to Fortitude saving throws against sleep deprivation (Core Rulebook 404).",
				"applies": 12,
				"appliesType": "CHARACTER_LEVEL"
			},{
				"name": "Security Review",
				"description": "At 18th level, nothing makes you feel more at peace than going over security procedures and verifying that you have covered every angle, filled every gap, and tightened every loophole to ensure your ward is safe from harm. Once per day, you can spend 10 minutes reviewing security precautions you have taken for your ward and recover 1 Resolve Point; this doesn’t count as resting to regain Stamina Points. In addition, once per day when you witness your ward being damaged by or failing a saving throw against an effect from a significant enemy, you recover 1 Resolve Point as a reaction.",
				"applies": 18,
				"appliesType": "CHARACTER_LEVEL"
			}]
		}
	}
}
